6
18
25 30 35 40 45 50 55 60 65 70 75 80 85 90 95 100 105 110
20
226 228 230 232 234 236 238 240 242 244 246 248 250 252 254 256 258 260 262 264
0.766   0.767   0.768   0.769   0.77    0.771   0.772   0.773   0.774   0.775   0.776   0.777   0.777   0.778   0.779   0.78    0.78    0.781   0.781   0.782
0.794   0.795   0.795   0.796   0.797   0.797   0.798   0.799   0.799   0.8     0.801   0.801   0.802   0.802   0.803   0.804   0.804   0.805   0.805   0.806
0.82    0.82    0.82    0.82    0.821   0.821   0.821   0.822   0.822   0.823   0.823   0.824   0.824   0.825   0.825   0.826   0.826   0.827   0.828   0.828
0.843   0.842   0.842   0.842   0.843   0.843   0.843   0.843   0.843   0.843   0.844   0.844   0.845   0.845   0.845   0.846   0.847   0.847   0.848   0.848
0.863   0.863   0.862   0.862   0.862   0.862   0.862   0.862   0.862   0.862   0.862   0.863   0.863   0.863   0.864   0.864   0.865   0.865   0.866   0.867
0.881   0.88    0.88    0.88    0.879   0.879   0.879   0.879   0.879   0.879   0.879   0.879   0.879   0.88    0.88    0.881   0.881   0.882   0.882   0.883
0.896   0.896   0.895   0.895   0.894   0.894   0.894   0.894   0.893   0.893   0.894   0.894   0.894   0.894   0.895   0.895   0.896   0.896   0.897   0.898
0.909   0.909   0.908   0.908   0.907   0.907   0.906   0.906   0.906   0.906   0.906   0.906   0.906   0.907   0.907   0.907   0.908   0.909   0.909   0.91
0.92    0.919   0.919   0.918   0.918   0.917   0.917   0.917   0.917   0.917   0.917   0.917   0.917   0.917   0.918   0.918   0.919   0.919   0.92    0.921
0.928   0.927   0.927   0.926   0.926   0.925   0.925   0.925   0.925   0.925   0.925   0.925   0.925   0.926   0.926   0.927   0.927   0.928   0.929   0.929
0.933   0.933   0.932   0.932   0.932   0.932   0.931   0.931   0.931   0.931   0.932   0.932   0.932   0.932   0.933   0.933   0.934   0.935   0.935   0.936
0.936   0.936   0.936   0.936   0.935   0.935   0.935   0.935   0.936   0.936   0.936   0.936   0.937   0.937   0.938   0.938   0.939   0.939   0.94    0.941
0.937   0.937   0.937   0.937   0.937   0.937   0.937   0.937   0.938   0.938   0.938   0.939   0.939   0.94    0.94    0.941   0.942   0.942   0.943   0.944
0.935   0.935   0.935   0.936   0.936   0.936   0.937   0.937   0.938   0.938   0.939   0.939   0.94    0.94    0.941   0.942   0.942   0.943   0.944   0.945
0.93    0.931   0.932   0.932   0.933   0.934   0.934   0.935   0.936   0.936   0.937   0.938   0.939   0.939   0.94    0.941   0.941   0.942   0.943   0.944
0.923   0.924   0.926   0.927   0.928   0.929   0.93    0.931   0.932   0.933   0.934   0.934   0.935   0.936   0.937   0.938   0.939   0.939   0.94    0.941
0.914   0.915   0.917   0.919   0.92    0.922   0.923   0.924   0.925   0.927   0.928   0.929   0.93    0.931   0.932   0.933   0.934   0.934   0.935   0.936
0.902   0.904   0.906   0.908   0.91    0.912   0.914   0.916   0.917   0.919   0.92    0.922   0.923   0.924   0.925   0.926   0.927   0.928   0.928   0.929
