[12/09/11 19:23:35] Escutando na porta 10001.
[12/09/11 19:24:00] Conexão realizada com 10.254.32.168:41769.
[12/09/11 19:24:00] Tentativa 1 para www.inf.ufpr.br.
[12/09/11 19:24:01] Requisitando ping em www.inf.ufpr.br para 10.254.31.125:10002.
[12/09/11 19:24:01] Erro ao criar socket. Saindo.
