./client.pl --remote-host 10.254.32.168 --remote-port 10000 --ping-address www.inf.ufpr.br
[12/09/11 19:17:24] Iniciando cliente em 10.254.28.82:.
[12/09/11 19:17:24] Iniciando conexão com 10.254.32.168:10000.
[12/09/11 19:17:24] Requisitando ping em www.inf.ufpr.br para 10.254.32.168:10000.
[12/09/11 19:17:27] [SUCESSO] www.inf.ufpr.br está acessível.
[12/09/11 19:17:27] Fechando conexão.
