[12/09/11 19:19:42] Escutando na porta 10002.
[12/09/11 19:20:54] Conexão realizada com 10.254.28.239:52930.
[12/09/11 19:20:54] Tentativa 1 para invalido.tata.com.
[12/09/11 19:20:56] Resposta falhou de invalido.tata.com.
[12/09/11 19:20:56] Tentativa 2 para invalido.tata.com.
[12/09/11 19:20:57] Resposta falhou de invalido.tata.com.
[12/09/11 19:20:57] Tentativa 3 para invalido.tata.com.
[12/09/11 19:20:58] Resposta falhou de invalido.tata.com.
[12/09/11 19:20:58] Tentativa 4 para invalido.tata.com.
[12/09/11 19:20:59] [FALHA] invalido.tata.com não está acessível.
[12/09/11 19:20:59] Informando falha ao cliente 10.254.28.239:52930.
[12/09/11 19:20:59] Fechando conexão com o cliente 10.254.28.239:52930.
