[12/09/11 19:01:46] Escutando na porta 10000.
[12/09/11 19:02:50] Conexão realizada com 10.254.28.82:43966.
[12/09/11 19:02:50] Tentativa 1 para www.inf.ufpr.br.
[12/09/11 19:02:51] [SUCESSO] www.inf.ufpr.br está acessível.
[12/09/11 19:02:51] Informando cliente 10.254.28.82:43966 do sucesso.
[12/09/11 19:02:51] Fechando conexão com o cliente 10.254.28.82:43966.
