[12/09/11 19:20:59] Escutando na porta 10002.
[12/09/11 19:21:47] Conexão realizada com 10.254.28.239:52932.
[12/09/11 19:21:47] Tentativa 1 para 654.123.654.123.
[12/09/11 19:21:48] Resposta falhou de 654.123.654.123.
[12/09/11 19:21:48] Tentativa 2 para 654.123.654.123.
[12/09/11 19:21:49] Resposta falhou de 654.123.654.123.
[12/09/11 19:21:49] Tentativa 3 para 654.123.654.123.
[12/09/11 19:21:50] Resposta falhou de 654.123.654.123.
[12/09/11 19:21:50] Tentativa 4 para 654.123.654.123.
[12/09/11 19:21:51] [FALHA] 654.123.654.123 não está acessível.
[12/09/11 19:21:51] Informando falha ao cliente 10.254.28.239:52932.
[12/09/11 19:21:51] Fechando conexão com o cliente 10.254.28.239:52932.
