				when 	"000000" => data_out <= "100101" & "00100" & "00010" & x"0008"; -- lw $2, 8($4)
				when 	"000001" => data_out <= "000100" & "00000" & "00000" & x"fffe"; -- beq $0, $0, -2
				when 	"000010" => data_out <= "000011" & "00000000000000000000000101"; -- jal 5
				when 	"000011" => data_out <= "000010" & "00000000000000000000000010"; -- j 2
				when 	"000100" => data_out <= "000000" & "00001" & "00010" & "00101" & "00000" & "100000"; -- add $5, $1, $2
				when 	"000101" => data_out <= "001000" & "00010" & "00100" & x"fffe"; -- addi $4, $2, -2
