\relax 
\@writefile{toc}{\contentsline {section}{\numberline {1}Implementa\IeC {\c c}\IeC {\~a}o da ADDI}{1}}
\@writefile{toc}{\contentsline {section}{\numberline {2}Implementa\IeC {\c c}\IeC {\~a}o da JR}{1}}
\@writefile{toc}{\contentsline {section}{\numberline {3}Avalia\IeC {\c c}\IeC {\~a}o do Projeto}{1}}
