\relax 
\catcode`"\active
\select@language{brazilian}
\@writefile{toc}{\select@language{brazilian}}
\@writefile{lof}{\select@language{brazilian}}
\@writefile{lot}{\select@language{brazilian}}
\@writefile{toc}{\contentsline {section}{\numberline {1}Especifica\IeC {\c c}\IeC {\~a}o}{1}}
\@writefile{toc}{\contentsline {section}{\numberline {2}Desenvolvimento}{1}}
\@writefile{toc}{\contentsline {subsection}{\numberline {2.1}Tipos de Mensagem}{1}}
\@writefile{toc}{\contentsline {subsection}{\numberline {2.2}Fun\IeC {\c c}\IeC {\~o}es do Servidor}{1}}
\@writefile{toc}{\contentsline {subsection}{\numberline {2.3}Fun\IeC {\c c}\IeC {\~o}es de Pacote}{2}}
